{
  "backgroundImage": "assets/background/cult.png",
  "colliders": [
    {
      "x": 200,
      "y": 150,
      "size": 64,
      "sprite": "assets/structures/forge.png"
    },
    {
      "x": 850,
      "y": 500,
      "size": 128,
      "sprite": "assets/structures/spire.png"
    },
    {
      "x": 100,
      "y": 500,
      "size": 128,
      "sprite": "assets/structures/spire.png"
    }
  ],
  "enemies": [
    {
      "dmg": 1,
      "moveSpeed": 2.0,
      "x": 700,
      "y": 400,
      "size": 52,
      "sprite-up": "assets/mobs/wraith/up.png",
      "sprite-down": "assets/mobs/wraith/down.png",
      "sprite-right": "assets/mobs/wraith/right.png",
      "sprite-left": "assets/mobs/wraith/left.png",
      "sprite-initial": "assets/mobs/wraith/down.png",
      "maxHp": 3
    },
    {
      "dmg": 1,
      "moveSpeed": 2.0,
      "x": 500,
      "y": 80,
      "size": 52,
      "sprite-up": "assets/mobs/harvester/up.png",
      "sprite-down": "assets/mobs/harvester/down.png",
      "sprite-right": "assets/mobs/harvester/right.png",
      "sprite-left": "assets/mobs/harvester/left.png",
      "sprite-initial": "assets/mobs/harvester/down.png",
      "maxHp": 1,
      "attacks": [
        {
          "type": "rotating",
          "dmg": 1,
          "cooldown": 180,
          "speed": 3,
          "size": 16,
          "sprite": "assets/effects/orb.png"
        }
      ]
    },
    {
      "dmg": 1,
      "moveSpeed": 2.0,
      "x": 530,
      "y": 160,
      "size": 52,
      "sprite-up": "assets/mobs/harvester/up.png",
      "sprite-down": "assets/mobs/harvester/down.png",
      "sprite-right": "assets/mobs/harvester/right.png",
      "sprite-left": "assets/mobs/harvester/left.png",
      "sprite-initial": "assets/mobs/harvester/left.png",
      "maxHp": 1,
      "attacks": [
        {
          "type": "rotating",
          "dmg": 1,
          "cooldown": 200,
          "speed": 2,
          "size": 24,
          "sprite": "assets/effects/orb.png"
        }
      ]
    },
    {
      "dmg": 1,
      "moveSpeed": 2.0,
      "x": 130,
      "y": 360,
      "size": 52,
      "sprite-up": "assets/mobs/harvester/up.png",
      "sprite-down": "assets/mobs/harvester/down.png",
      "sprite-right": "assets/mobs/harvester/right.png",
      "sprite-left": "assets/mobs/harvester/left.png",
      "sprite-initial": "assets/mobs/harvester/right.png",
      "maxHp": 1,
      "attacks": [
        {
          "dmg": 1,
          "cooldown": 250,
          "speed": 2,
          "size": 16,
          "sprite": "assets/effects/orb.png"
        }
      ]
    }
  ],
  "exits": [
    {
      "x": 540,
      "y": 836,
      "exitX": 510,
      "exitY": 80,
      "linkedLevelID": "level1",
      "size": 64,
      "sprite": "assets/doors/clockwork-open.png",
      "spriteClosed": "assets/doors/clockwork-closed.png",
      "opensWhen": "never"
    },
    {
      "x": 540,
      "y": 0,
      "exitX": 540,
      "exitY": 750,
      "linkedLevelID": "preBoss",
      "size": 64,
      "sprite": "assets/doors/clockwork-open.png",
      "spriteClosed": "assets/doors/clockwork-closed.png",
      "opensWhen": "enemiesDead"
    },
    {
      "x": 1016,
      "y": 700,
      "exitX": 80,
      "exitY": 475,
      "linkedLevelID": "level3",
      "size": 64,
      "sprite": "assets/doors/clockwork-open.png"
    },
    {
      "x": 0,
      "y": 300,
      "exitX": 920,
      "exitY": 300,
      "linkedLevelID": "powerUpRoom1",
      "size": 64,
      "sprite": "assets/doors/clockwork-open.png",
      "spriteClosed": "assets/doors/clockwork-closed.png",
      "opensWhen": "enemiesDead"
    }
  ]
}